flexdashboard
…
  Resume

flexdashboard

data("rest_inspec")
tidy_rest =
  rest_inspec |>
  select(boro, cuisine_description, dba, score, street, zipcode, grade) |>
  drop_na() |>
  filter(
    grade %in% c("A", "B", "C")) 
tidy_rest

## # A tibble: 188,196 × 7
##    boro      cuisine_description dba                  score street zipcode grade
##    <chr>     <chr>               <chr>                <int> <chr>    <int> <chr>
##  1 MANHATTAN American            THE HAROLD               9 BROAD…   10001 A    
##  2 MANHATTAN Korean              SHILLA KOREAN BARBE…     9 WEST …   10001 A    
##  3 MANHATTAN Korean              HAN BAT RESTAURANT       6 WEST …   10001 A    
##  4 MANHATTAN American            BRGR                    12 7 AVE…   10001 A    
##  5 MANHATTAN Pizza               WALDY'S WOOD FIRED …     9 6 AVE…   10001 A    
##  6 MANHATTAN CafÃ©/Coffee/Tea    LUNA                    23 W 29T…   10001 B    
##  7 MANHATTAN American            JOHNY'S LUNCHEONETTE     7 WEST …   10001 A    
##  8 MANHATTAN American            AROME CAFE 32           12 WEST …   10001 A    
##  9 MANHATTAN American            L'AMICO/THE VINE        12 6TH A…   10001 A    
## 10 MANHATTAN Korean              MADANGSUI               14 WEST …   10001 B    
## # ℹ 188,186 more rows
…
